%YAML 1.1
%TAG !u! tag:unity3d.com,2011:
--- !u!114 &11400000
MonoBehaviour:
  m_ObjectHideFlags: 0
  m_CorrespondingSourceObject: {fileID: 0}
  m_PrefabInstance: {fileID: 0}
  m_PrefabAsset: {fileID: 0}
  m_GameObject: {fileID: 0}
  m_Enabled: 1
  m_EditorHideFlags: 0
  m_Script: {fileID: 11500000, guid: 7b77c797179e97046a05bf73a4be7011, type: 3}
  m_Name: L other
  m_EditorClassIdentifier: 
  hitZone:
    Size: {x: 3, y: 2}
    Center: {x: 2, y: 1}
    Zone:
    - Array: 000001
    - Array: 010101
    open: 1
  spriteHitzones: {fileID: 21300000, guid: e8bb28498319ed64dbac107a1600029c, type: 3}
