%YAML 1.1
%TAG !u! tag:unity3d.com,2011:
--- !u!114 &11400000
MonoBehaviour:
  m_ObjectHideFlags: 0
  m_CorrespondingSourceObject: {fileID: 0}
  m_PrefabInstance: {fileID: 0}
  m_PrefabAsset: {fileID: 0}
  m_GameObject: {fileID: 0}
  m_Enabled: 1
  m_EditorHideFlags: 0
  m_Script: {fileID: 11500000, guid: c97552583b1e16942a456d051856768b, type: 3}
  m_Name: Boilling Water
  m_EditorClassIdentifier: 
  Cost: 0
  FireEffect: 1
  WaterEffect: 2
  EarthEffect: 0
  HitZoneImage: {fileID: 0}
  CardImage: {fileID: 21300000, guid: 5e966c46405f45944b8663034f3692f5, type: 3}
  hitZone:
    Size: {x: 0, y: 0}
    Center: {x: 0, y: 0}
    Zone: []
    open: 0
